<?xml version="1.0" encoding="UTF-8" standalone="no"?>
<!-- Created with Inkscape (http://www.inkscape.org/) -->

<svg
   width="375.56573"
   height="283.23471"
   viewBox="0 0 99.368434 74.939184"
   version="1.1"
   id="svg1"
   inkscape:version="1.3.2 (091e20ef0f, 2023-11-25, custom)"
   sodipodi:docname="gui.svg"
   xmlns:inkscape="http://www.inkscape.org/namespaces/inkscape"
   xmlns:sodipodi="http://sodipodi.sourceforge.net/DTD/sodipodi-0.dtd"
   xmlns="http://www.w3.org/2000/svg"
   xmlns:svg="http://www.w3.org/2000/svg">
  <sodipodi:namedview
     id="namedview1"
     pagecolor="#ffffff"
     bordercolor="#eeeeee"
     borderopacity="1"
     inkscape:showpageshadow="0"
     inkscape:pageopacity="0"
     inkscape:pagecheckerboard="false"
     inkscape:deskcolor="#d1d1d1"
     inkscape:document-units="px"
     showborder="true"
     inkscape:zoom="1.540625"
     inkscape:cx="681.86613"
     inkscape:cy="143.44828"
     inkscape:window-width="2560"
     inkscape:window-height="1364"
     inkscape:window-x="1920"
     inkscape:window-y="0"
     inkscape:window-maximized="1"
     inkscape:current-layer="g14"
     showgrid="false" />
  <defs
     id="defs1" />
  <g
     inkscape:label="Layer 1"
     inkscape:groupmode="layer"
     id="layer1"
     transform="translate(-170.65826,-4.8282399)">
    <g
       id="g15"
       transform="translate(-23.012848,-6.1825558)">
      <path
         id="path1-5"
         style="fill:#1a1a1a;fill-opacity:0.455944;stroke:none;stroke-width:1.32292"
         inkscape:transform-center-x="0.062856236"
         inkscape:transform-center-y="3.0128132"
         d="m 236.54063,11.16185 c -2.44097,0.440272 -4.19855,2.355642 -6.07021,3.821508 -3.10103,2.621753 -5.86161,5.639258 -9.02861,8.176964 -1.80164,0.723972 -3.78186,0.755729 -5.67183,1.115565 -6.1847,0.913151 -12.52651,1.296842 -18.59867,2.944702 -1.32624,0.355711 -2.88189,1.300962 -2.80891,2.863516 0.0766,1.780304 1.42723,3.139779 2.41293,4.507116 3.89751,4.887111 8.55861,9.097089 12.56413,13.890941 0.47269,0.678713 1.34268,1.463297 1.09896,2.449711 -1.04359,7.753967 -3.04351,15.384587 -3.67707,23.220526 -0.0873,1.392214 -0.14427,3.164969 1.17626,4.0285 1.59123,0.930916 3.44359,0.0827 5.02295,-0.431474 4.95117,-1.777157 9.48154,-4.578431 14.48828,-6.155935 0.33758,-0.151009 0.83253,-0.0594 1.08795,0.301352 1.99871,1.730163 3.6274,3.830839 5.39932,5.78273 2.35586,2.694349 4.65527,5.511252 7.55023,7.649977 1.10927,0.755952 2.66504,0.883292 3.76935,0.0474 3.70416,-2.1033 6.9241,-4.929805 10.26109,-7.55207 3.70369,-3.026918 7.33363,-6.143232 10.96135,-9.260644 2.57642,-0.751592 5.13759,-0.672189 7.81874,-0.940388 5.38309,-0.387192 10.86238,-0.3836 16.16759,-1.549846 1.28174,-0.288799 2.72094,-1.276157 2.56319,-2.755996 -0.16797,-1.661568 -1.52227,-2.852291 -2.51913,-4.073858 -3.99452,-4.40503 -8.53954,-8.259314 -12.84167,-12.353718 -1.78707,-1.683703 -3.60627,-3.369811 -5.1184,-5.304709 -0.22565,-1.140778 0.155,-2.298612 0.20937,-3.443868 0.85092,-6.949454 2.4022,-13.818722 2.76635,-20.822848 -0.0234,-1.294411 0.0701,-2.956837 -1.14955,-3.772347 -1.26749,-0.795071 -2.80968,-0.192916 -4.12516,0.146108 -5.37398,1.902583 -10.49031,4.560516 -15.65218,6.906626 -2.63641,1.156346 -5.25393,2.403134 -8.01563,3.230469 -0.52991,0.0046 -0.73843,-0.69183 -1.07291,-1.020793 -1.88116,-2.937708 -3.1732,-6.221532 -5.18772,-9.077187 -0.91278,-1.233448 -2.06263,-2.709376 -3.78039,-2.568035 z"
         inkscape:export-filename="crash.svg"
         inkscape:export-xdpi="96"
         inkscape:export-ydpi="96" />
      <path
         id="path1"
         style="fill:#ffdd55;stroke:#d4aa00;stroke-width:1.32292"
         inkscape:transform-center-x="0.062856236"
         inkscape:transform-center-y="3.0128132"
         d="m 220.79953,23.439935 c 2.28409,-1.621672 11.4763,-11.44115 14.24838,-11.761094 2.77209,-0.319942 6.65545,11.521336 9.14065,12.658593 2.4852,1.137256 26.1777,-12.521456 27.83167,-10.452948 1.65398,2.068512 -3.3374,24.27629 -2.66641,26.990772 0.671,2.714483 21.55451,19.326106 20.49605,21.796464 -1.05846,2.470358 -23.97625,1.783759 -25.96119,3.56877 -1.98494,1.78501 -19.25653,16.760942 -21.95187,17.087067 -2.69535,0.326124 -12.42413,-13.56652 -15.03718,-14.439239 -2.61307,-0.872715 -18.38154,8.928972 -19.90169,6.744769 -1.52014,-2.184202 3.85288,-24.159978 3.454,-26.892363 -0.39888,-2.732383 -17.33379,-17.629681 -16.04865,-20.111281 1.28512,-2.481605 24.11216,-3.567837 26.39624,-5.18951 z"
         sodipodi:nodetypes="sssssssssssss" />
      <g
         id="g14"
         transform="translate(0.52367353,3.9692288)">
        <path
           style="font-weight:900;font-size:19.7556px;line-height:1.25;font-family:'DIN Black';-inkscape-font-specification:'DIN Black,  Heavy';letter-spacing:0.47625px;fill:#554400;stroke:#b3b3b3;stroke-width:1.00542;stroke-dasharray:7.0379, 1.00542;stroke-dashoffset:0;paint-order:stroke fill markers"
           d="m 267.57848,49.752632 -2.31956,-1.142855 1.09634,-2.225165 2.31956,1.142855 z"
           id="path14" />
        <path
           style="font-weight:900;font-size:19.7556px;line-height:1.25;font-family:'DIN Black';-inkscape-font-specification:'DIN Black,  Heavy';letter-spacing:0.47625px;fill:#554400;stroke:#b3b3b3;stroke-width:1.00542;stroke-dasharray:7.0379, 1.00542;stroke-dashoffset:0;paint-order:stroke fill markers"
           d="m 267.23636,37.793048 0.54806,7.324732 -1.79382,0.302234 -1.88231,-7.09993 z"
           id="path13" />
        <path
           style="font-weight:900;font-size:19.7556px;line-height:1.25;font-family:'DIN Black';-inkscape-font-specification:'DIN Black,  Heavy';letter-spacing:0.47625px;fill:#554400;stroke:#b3b3b3;stroke-width:1.00542;stroke-dasharray:7.0379, 1.00542;stroke-dashoffset:0;paint-order:stroke fill markers"
           d="m 260.78303,49.5319 -2.65943,-0.411384 0.66419,-4.293725 -2.8303,-0.437815 -0.66419,4.293725 -2.66686,-0.412533 1.67541,-10.830886 2.66686,0.412533 -0.64465,4.16744 2.8303,0.437814 0.64465,-4.167439 2.65943,0.411384 z"
           id="path12" />
        <path
           style="font-weight:900;font-size:19.7556px;line-height:1.25;font-family:'DIN Black';-inkscape-font-specification:'DIN Black,  Heavy';letter-spacing:0.47625px;fill:#554400;stroke:#b3b3b3;stroke-width:1.00542;stroke-dasharray:7.0379, 1.00542;stroke-dashoffset:0;paint-order:stroke fill markers"
           d="m 251.68641,44.451412 q 0.27898,1.038092 -0.0699,1.941333 -0.34156,0.90129 -1.17268,1.544959 -0.8258,0.634458 -1.951,0.93684 -1.31395,0.353108 -2.3706,0.30237 -1.05664,-0.05074 -2.0184,-0.617342 l 1.22095,-2.118354 q 0.49736,0.286659 1.18495,0.296467 0.68565,0.0025 1.37529,-0.182783 1.51721,-0.40773 1.26164,-1.358709 -0.10925,-0.406525 -0.37829,-0.567732 -0.26905,-0.161206 -0.77298,-0.09583 l -1.32643,0.16187 q -1.46099,0.182465 -2.37865,-0.364857 -0.92689,-0.552629 -1.29755,-1.931911 -0.25947,-0.965497 0.002,-1.845329 0.26702,-0.889041 1.02304,-1.551446 0.76328,-0.664358 1.9393,-0.980397 1.16877,-0.314093 2.12183,-0.243301 0.95837,0.06158 1.78923,0.546606 l -1.19441,2.072304 q -0.51577,-0.297276 -1.01689,-0.279361 -0.50113,0.01792 -1.16173,0.195443 -0.62431,0.167775 -0.87099,0.553198 -0.24669,0.385426 -0.1433,0.770172 0.0761,0.283117 0.34319,0.437061 0.31314,0.180491 0.80982,0.117067 l 1.32447,-0.169126 q 1.44843,-0.171305 2.3195,0.318485 0.52108,0.288068 0.85668,0.812788 0.34092,0.515507 0.55161,1.299519 z"
           id="path11" />
        <path
           style="font-weight:900;font-size:19.7556px;line-height:1.25;font-family:'DIN Black';-inkscape-font-specification:'DIN Black,  Heavy';letter-spacing:0.47625px;fill:#554400;stroke:#b3b3b3;stroke-width:1.00542;stroke-dasharray:7.0379, 1.00542;stroke-dashoffset:0;paint-order:stroke fill markers"
           d="m 242.50092,48.911608 -2.81118,0.02994 -0.52849,-1.62564 -3.37492,0.03595 -0.5163,1.636769 -2.81869,0.03002 3.86701,-11.001518 2.08207,-0.02218 z m -4.07016,-3.835608 -0.95569,-2.914077 -0.95351,2.934414 z"
           id="path10" />
        <path
           style="font-weight:900;font-size:19.7556px;line-height:1.25;font-family:'DIN Black';-inkscape-font-specification:'DIN Black,  Heavy';letter-spacing:0.47625px;fill:#554400;stroke:#b3b3b3;stroke-width:1.00542;stroke-dasharray:7.0379, 1.00542;stroke-dashoffset:0;paint-order:stroke fill markers"
           d="m 232.61795,48.159017 -3.07514,0.524383 -2.5979,-3.697615 -0.89661,0.152892 0.68612,4.023619 -2.66017,0.453622 -1.84229,-10.803753 4.28296,-0.730346 q 1.16337,-0.198381 2.07668,0.149159 0.91205,0.340128 1.47703,1.059709 0.57239,0.718318 0.72907,1.637155 0.17311,1.015167 -0.22175,1.829795 -0.38872,0.805955 -1.0604,1.294138 z m -4.48043,-6.777552 q -0.0493,-0.28899 -0.23303,-0.516921 -0.17634,-0.229194 -0.46836,-0.331907 -0.28589,-0.111384 -0.63416,-0.052 l -1.50423,0.256508 0.37275,2.185944 1.50424,-0.256508 q 0.34826,-0.05939 0.58234,-0.251811 0.24022,-0.201097 0.33191,-0.468372 0.0978,-0.275948 0.0485,-0.564936 z"
           id="path9" />
        <path
           style="font-weight:900;font-size:19.7556px;line-height:1.25;font-family:'DIN Black';-inkscape-font-specification:'DIN Black,  Heavy';letter-spacing:0.47625px;fill:#554400;stroke:#b3b3b3;stroke-width:1.00542;stroke-dasharray:7.0379, 1.00542;stroke-dashoffset:0;paint-order:stroke fill markers"
           d="m 220.63083,46.512656 q -0.3682,0.803211 -0.91345,1.370844 -0.53603,0.562368 -1.18971,0.84308 -0.64645,0.282697 -1.37103,0.310158 -0.72458,0.02746 -1.47855,-0.179159 -1.76166,-0.482776 -2.61028,-1.993566 -0.50524,-0.886692 -0.45135,-1.822804 0.0539,-0.936111 0.4274,-2.299045 l 0.0974,-0.355232 0.0974,-0.355233 q 0.3735,-1.362933 0.80437,-2.195735 0.43286,-0.840051 1.31955,-1.34529 0.75738,-0.431563 1.54731,-0.526849 0.79193,-0.102533 1.71264,0.149781 0.7902,0.216551 1.39031,0.614833 0.60211,0.391034 1.00687,0.961806 0.40675,0.563525 0.58119,1.320592 0.18367,0.751803 0.087,1.645008 l -2.63886,-0.723167 q 0.003,-0.552472 -0.22498,-0.942388 -0.21905,-0.395176 -0.82078,-0.560075 -0.33348,-0.09139 -0.63548,-0.04165 -0.29478,0.05172 -0.50791,0.203753 -0.18542,0.136243 -0.33996,0.358891 -0.14532,0.217381 -0.33315,0.703701 -0.17859,0.481057 -0.44282,1.445259 -0.35165,1.283187 -0.40047,1.830984 -0.0468,0.540547 0.084,0.888152 0.22481,0.544841 0.89903,0.729607 0.58722,0.160925 0.98239,-0.05813 0.40442,-0.224318 0.68321,-0.701297 z"
           id="text1" />
      </g>
    </g>
  </g>
</svg>
