<?xml version="1.0" encoding="UTF-8" standalone="no"?>
<!-- Created with Inkscape (http://www.inkscape.org/) -->

<svg
   width="1920"
   height="1080"
   viewBox="0 0 508 285.75"
   version="1.1"
   id="svg1"
   inkscape:version="1.3.2 (091e20ef0f, 2023-11-25, custom)"
   sodipodi:docname="sweets.svg"
   xmlns:inkscape="http://www.inkscape.org/namespaces/inkscape"
   xmlns:sodipodi="http://sodipodi.sourceforge.net/DTD/sodipodi-0.dtd"
   xmlns="http://www.w3.org/2000/svg"
   xmlns:svg="http://www.w3.org/2000/svg">
  <sodipodi:namedview
     id="namedview1"
     pagecolor="#ffffff"
     bordercolor="#eeeeee"
     borderopacity="1"
     inkscape:showpageshadow="0"
     inkscape:pageopacity="0"
     inkscape:pagecheckerboard="false"
     inkscape:deskcolor="#d1d1d1"
     inkscape:document-units="px"
     showborder="true"
     inkscape:zoom="2.1787728"
     inkscape:cx="189.55625"
     inkscape:cy="284.56386"
     inkscape:window-width="2560"
     inkscape:window-height="1364"
     inkscape:window-x="1920"
     inkscape:window-y="0"
     inkscape:window-maximized="1"
     inkscape:current-layer="layer1"
     showgrid="false" />
  <defs
     id="defs1" />
  <g
     inkscape:label="Layer 1"
     inkscape:groupmode="layer"
     id="layer1">
    <g
       id="g5"
       transform="matrix(0.25707023,0,0,0.25707023,21.635275,24.656203)"
       inkscape:export-filename="lolli.svg"
       inkscape:export-xdpi="177.75269"
       inkscape:export-ydpi="177.75269">
      <rect
         style="fill:#ffb380;stroke:#000000;stroke-width:2.77595;stroke-linejoin:round;stroke-dasharray:none;paint-order:stroke fill markers"
         id="rect1"
         width="7.7630024"
         height="80.024361"
         x="82.956253"
         y="-9.0698233"
         ry="5.7160263"
         transform="matrix(0.71799285,0.69605048,-0.36237497,0.93203239,0,0)" />
      <circle
         style="fill:#ffe680;stroke:#000000;stroke-width:2.20084;stroke-linejoin:round;stroke-dasharray:none;paint-order:stroke fill markers"
         id="path2"
         cx="61.611977"
         cy="60.98082"
         r="26.692602" />
      <path
         sodipodi:type="spiral"
         style="fill:none;fill-rule:evenodd;stroke:#de87cd;stroke-width:5.18583;stroke-dasharray:none"
         id="path1"
         sodipodi:cx="206.42867"
         sodipodi:cy="72.816765"
         sodipodi:expansion="1"
         sodipodi:revolution="3"
         sodipodi:radius="31.874805"
         sodipodi:argument="-17.926571"
         sodipodi:t0="0"
         d="m 206.42867,72.816765 c 0.96439,1.274377 -1.24204,1.928715 -2.1181,1.602884 -2.37407,-0.88298 -2.33342,-4.074839 -1.08767,-5.83908 2.22835,-3.155813 6.84785,-2.922037 9.56006,-0.572458 3.98027,3.448103 3.53398,9.660617 0.0572,13.281046 -4.63393,4.825462 -12.48776,4.156205 -17.00202,-0.457969 -5.68075,-5.806468 -4.78383,-15.321833 0.97318,-20.723011 6.97251,-6.54155 18.15982,-5.414589 24.44399,1.488396 7.40569,8.134929 6.04732,21.000243 -2.00361,28.164976 -9.29512,8.271967 -23.8423,6.681367 -31.88596,-2.518823 -9.13971,-10.453842 -7.31633,-26.6855 3.03404,-35.606941 11.61155,-10.008508 29.52953,-7.951968 39.32792,3.54925 10.87807,12.768531 8.5881,32.374197 -4.06446,43.048906"
         transform="matrix(0.74724335,0,0,0.74724335,-93.250853,6.1735601)" />
      <path
         sodipodi:type="spiral"
         style="fill:none;fill-rule:evenodd;stroke:#ff5555;stroke-width:5.18583;stroke-dasharray:none"
         id="path1-2"
         sodipodi:cx="206.42867"
         sodipodi:cy="72.816765"
         sodipodi:expansion="1"
         sodipodi:revolution="3"
         sodipodi:radius="31.874805"
         sodipodi:argument="-17.926571"
         sodipodi:t0="0"
         d="m 206.42867,72.816765 c 0.96439,1.274377 -1.24204,1.928715 -2.1181,1.602884 -2.37407,-0.88298 -2.33342,-4.074839 -1.08767,-5.83908 2.22835,-3.155813 6.84785,-2.922037 9.56006,-0.572458 3.98027,3.448103 3.53398,9.660617 0.0572,13.281046 -4.63393,4.825462 -12.48776,4.156205 -17.00202,-0.457969 -5.68075,-5.806468 -4.78383,-15.321833 0.97318,-20.723011 6.97251,-6.54155 18.15982,-5.414589 24.44399,1.488396 7.40569,8.134929 6.04732,21.000243 -2.00361,28.164976 -9.29512,8.271967 -23.8423,6.681367 -31.88596,-2.518823 -9.13971,-10.453842 -7.31633,-26.6855 3.03404,-35.606941 11.61155,-10.008508 29.52953,-7.951968 39.32792,3.54925 10.87807,12.768531 8.5881,32.374197 -4.06446,43.048906"
         transform="matrix(-0.73570712,-0.13079624,0.13079624,-0.73570712,203.76564,142.98147)" />
      <path
         sodipodi:type="spiral"
         style="fill:none;fill-rule:evenodd;stroke:#ffcc00;stroke-width:5.18583;stroke-dasharray:none"
         id="path1-5"
         sodipodi:cx="206.42867"
         sodipodi:cy="72.816765"
         sodipodi:expansion="1"
         sodipodi:revolution="3"
         sodipodi:radius="31.874805"
         sodipodi:argument="-17.926571"
         sodipodi:t0="0"
         d="m 206.42867,72.816765 c 0.96439,1.274377 -1.24204,1.928715 -2.1181,1.602884 -2.37407,-0.88298 -2.33342,-4.074839 -1.08767,-5.83908 2.22835,-3.155813 6.84785,-2.922037 9.56006,-0.572458 3.98027,3.448103 3.53398,9.660617 0.0572,13.281046 -4.63393,4.825462 -12.48776,4.156205 -17.00202,-0.457969 -5.68075,-5.806468 -4.78383,-15.321833 0.97318,-20.723011 6.97251,-6.54155 18.15982,-5.414589 24.44399,1.488396 7.40569,8.134929 6.04732,21.000243 -2.00361,28.164976 -9.29512,8.271967 -23.8423,6.681367 -31.88596,-2.518823 -9.13971,-10.453842 -7.31633,-26.6855 3.03404,-35.606941 11.61155,-10.008508 29.52953,-7.951968 39.32792,3.54925 10.87807,12.768531 8.5881,32.374197 -4.06446,43.048906"
         transform="matrix(-0.47975574,0.40570384,-0.40570384,-0.47975574,188.76028,11.528797)" />
      <path
         style="fill:#ffb380;fill-opacity:1;stroke:none;stroke-width:0.216118px;stroke-linecap:butt;stroke-linejoin:miter;stroke-opacity:1"
         d="m 48.771125,86.52154 0.29619,-2.98968 7.20744,3.48796 -1.33288,1.9433 z"
         id="path3" />
      <path
         id="path4"
         style="fill:#4d4d4d;fill-opacity:0.391231;stroke:none;stroke-width:0.264583px;stroke-linecap:butt;stroke-linejoin:miter;stroke-opacity:1"
         d="m 68.226105,35.123825 c 18.68338,14.96251 22.62105,31.265538 5.70714,49.464165 8.80849,-4.58352 14.34468,-13.677721 14.37122,-23.607345 -0.002,-12.193194 -8.26543,-22.835431 -20.07836,-25.85682 z"
         sodipodi:nodetypes="cccc" />
      <path
         id="path4-6"
         style="fill:#f9f9f9;fill-opacity:0.671164;stroke:none;stroke-width:0.264583px;stroke-linecap:butt;stroke-linejoin:miter;stroke-opacity:1"
         d="m 63.251495,34.204223 c -22.42047,8.3826 -31.25054,22.641767 -20.86273,45.210857 -6.93753,-7.104148 -9.35821,-17.472085 -6.28379,-26.913802 3.80814,-11.583266 14.98073,-19.114182 27.14652,-18.297055 z"
         sodipodi:nodetypes="cccc"
         inkscape:transform-center-x="12.516593"
         inkscape:transform-center-y="-4.9401774" />
      <path
         id="path5"
         style="fill:#4d4d4d;fill-opacity:0.347386;stroke:none;stroke-width:0.264583px;stroke-linecap:butt;stroke-linejoin:miter;stroke-opacity:1"
         d="m 54.532365,86.29745 -16.60674,40.91584 c 1.30367,0.13481 2.71728,-1.07249 3.56929,-3.26388 l 14.40584,-37.052 z" />
    </g>
    <g
       id="g181"
       inkscape:export-filename="bonbon.svg"
       inkscape:export-xdpi="154.71265"
       inkscape:export-ydpi="154.71265">
      <g
         id="g8"
         transform="matrix(0.10779745,0,0,0.10779745,52.375584,35.082505)">
        <path
           id="path6"
           style="fill:#ffcc00;stroke:#000000;stroke-width:2.12439;stroke-linejoin:round;paint-order:stroke fill markers"
           d="M 258.98019,80.373193 C 247.27874,91.51898 239.23556,107.78627 221.34734,110.27059 A 38.469234,23.356323 0 0 0 184.10259,92.738329 38.469234,23.356323 0 0 0 147.12552,109.72541 c -14.9838,1.89745 -14.94248,-13.492764 -28.7042,-24.456392 10.84997,11.785128 1.75332,42.904352 19.23449,28.164692 -6.92455,5.53522 -9.09066,14.24277 -26.10435,13.05191 0.45797,5.95357 4.5797,7.32748 12.36514,4.12171 -11.98369,7.78544 -10.10804,15.57129 -15.11278,23.35672 12.0211,-11.45024 20.18309,-28.30328 39.1232,-30.0669 a 38.469234,23.356323 0 0 0 36.17557,15.55357 38.469234,23.356323 0 0 0 35.70221,-14.70659 c 15.83624,-2.59083 15.54245,13.15792 29.5584,24.32409 -10.84996,-11.78512 -1.75332,-42.90435 -19.23448,-28.16469 6.92455,-5.53522 9.09015,-14.24329 26.10383,-13.05243 -0.45797,-5.95356 -4.5797,-7.32748 -12.36514,-4.12171 11.98368,-7.785432 10.10804,-15.570765 15.11278,-23.356197 z" />
        <path
           id="rect7"
           style="fill:#ff5555;fill-opacity:1;stroke:none;stroke-width:2.20084;stroke-linejoin:round;stroke-dasharray:none;paint-order:stroke fill markers"
           d="m 12.876558,205.73853 c -0.41811,-0.656 -0.847746,-1.30333 -1.288312,-1.94109 -10.93756581,-8.47315 -25.556552,-10.22734 -46.740446,7e-5 0.111478,5.20118 1.299579,10.85568 3.464175,16.48696 17.281221,-17.8595 33.9727968,-9.53997 50.636887,-1.5e-4 -1.305479,-4.92123 -3.374323,-9.87701 -6.072304,-14.54579 z"
           transform="rotate(-59.682786)"
           sodipodi:nodetypes="cccccc" />
        <path
           id="rect8"
           style="fill:#cda400;fill-opacity:1;stroke:none;stroke-width:2.20084;stroke-linejoin:round;stroke-dasharray:none;paint-order:stroke fill markers"
           d="m 250.27542,40.263721 c -2.06458,1.701006 -4.37549,3.207382 -7.07031,4.410448 a 23.356323,38.469234 73.848998 0 0 -0.78105,-0.755656 l 4e-5,15.478732 c 0,1.354181 0.70742,2.534319 1.77223,3.201101 a 23.356323,38.469234 73.848998 0 0 1.55322,-3.592796 c 2.05785,-0.979005 3.90057,-1.499451 5.60474,-1.674241 l 1.4e-4,-14.421079 c 0,-1.033203 -0.41144,-1.965745 -1.07901,-2.646509 z"
           transform="rotate(16.151002)" />
        <path
           id="rect8-7"
           style="fill:#cda400;fill-opacity:1;stroke:none;stroke-width:2.20084;stroke-linejoin:round;stroke-dasharray:none;paint-order:stroke fill markers"
           d="m 132.42931,126.73662 a 38.469234,23.356323 8.4524964 0 0 -3.2396,3.68764 c -2.1215,-0.0457 -3.89009,-0.39507 -5.41247,-0.98089 l -2.4e-4,15.16114 c 1.33175,-0.0977 2.70088,-0.12242 4.12241,-0.0446 a 38.469234,23.356323 8.4524964 0 0 2.02496,3.7302 c 1.6064,-0.43522 2.78302,-1.89428 2.78302,-3.64212 l 2.4e-4,-16.48658 c 0,-0.50495 -0.10011,-0.98524 -0.27832,-1.42477 z"
           transform="rotate(-8.4524964)" />
      </g>
      <path
         id="path6-5"
         style="fill:#ffcc00;stroke:#000000;stroke-width:0.229004;stroke-linejoin:round;paint-order:stroke fill markers"
         d="m 80.292989,43.746531 c -1.261387,1.201487 -2.128421,2.95506 -4.056725,3.222863 a 4.1468854,2.5177522 0 0 0 -4.014889,-1.889933 4.1468854,2.5177522 0 0 0 -3.986034,1.831164 c -1.615216,0.204541 -1.610763,-1.454485 -3.094241,-2.636337 1.1696,1.270407 0.189003,4.624981 2.073431,3.036083 -0.74645,0.596682 -0.979952,1.535334 -2.813983,1.406962 0.04937,0.64178 0.49368,0.789884 1.332929,0.44431 -1.291811,0.839251 -1.08962,1.678546 -1.629118,2.517795 1.295845,-1.234307 2.175686,-3.051022 4.217381,-3.241135 a 4.1468854,2.5177522 0 0 0 3.899635,1.676635 4.1468854,2.5177522 0 0 0 3.848606,-1.585333 c 1.707108,-0.279285 1.675437,1.41839 3.186321,2.622076 -1.169598,-1.270407 -0.189003,-4.624981 -2.073428,-3.036083 0.746449,-0.596682 0.979895,-1.53539 2.813926,-1.407018 -0.04937,-0.641779 -0.49368,-0.789884 -1.332929,-0.44431 1.291808,-0.83925 1.08962,-1.678489 1.629118,-2.517739 z" />
      <path
         id="rect7-0"
         style="fill:#ff5555;fill-opacity:1;stroke:none;stroke-width:0.237245;stroke-linejoin:round;stroke-dasharray:none;paint-order:stroke fill markers"
         d="m 72.221359,45.079483 c -0.0838,0.0032 -0.167412,0.008 -0.250731,0.01426 -1.383639,0.556736 -2.342365,1.82166 -2.543365,4.34946 0.490066,0.272647 1.080898,0.469776 1.722704,0.574773 -0.72157,-2.579933 0.960875,-3.680471 2.755382,-4.712049 -0.528986,-0.146305 -1.102723,-0.223456 -1.68399,-0.226444 z"
         sodipodi:nodetypes="cccccc" />
      <path
         id="rect8-3"
         style="fill:#de87cd;fill-opacity:1;stroke:none;stroke-width:0.237245;stroke-linejoin:round;stroke-dasharray:none;paint-order:stroke fill markers"
         d="m 77.082477,46.756285 c -0.264779,0.114219 -0.549228,0.200898 -0.864331,0.244661 a 4.1468854,2.5177522 4.4300216e-7 0 0 -0.05821,-0.101664 l -0.46414,1.602714 c -0.04061,0.140216 -0.0028,0.283624 0.08751,0.384594 a 4.1468854,2.5177522 4.4300216e-7 0 0 0.268559,-0.325434 c 0.24243,-0.03966 0.448837,-0.03829 0.630534,-0.0053 l 0.432444,-1.493196 c 0.03098,-0.106981 0.01635,-0.215877 -0.03237,-0.306383 z" />
      <path
         id="rect8-7-6"
         style="fill:#de87cd;fill-opacity:1;stroke:none;stroke-width:0.237245;stroke-linejoin:round;stroke-dasharray:none;paint-order:stroke fill markers"
         d="m 68.504219,46.497643 a 2.5177522,4.1468854 89.999999 0 0 -0.286996,0.444532 c -0.226934,0.02874 -0.421048,0.01951 -0.592657,-0.01883 l 0.240203,1.616584 c 0.140453,-0.03152 0.286048,-0.05585 0.438853,-0.07008 a 2.5177522,4.1468854 89.999999 0 0 0.275021,0.365652 c 0.164389,-0.07186 0.266728,-0.246077 0.239034,-0.432443 l -0.261206,-1.757912 c -0.008,-0.05384 -0.02629,-0.103466 -0.05225,-0.147508 z" />
      <path
         id="path8"
         style="fill:#4d4d4d;fill-opacity:0.310287;stroke:none;stroke-width:0.0680164px;stroke-linecap:butt;stroke-linejoin:miter;stroke-opacity:1"
         d="m 68.344542,47.87839 -0.122216,0.601255 c 0.02716,-0.0032 0.05372,-0.0073 0.0813,-0.0098 a 4.1468854,2.5177522 0 0 0 3.899655,1.676633 4.1468854,2.5177522 0 0 0 3.848513,-1.585369 c 0.07909,-0.01294 0.153348,-0.02028 0.225305,-0.02497 l 0.01421,-0.216271 c -3.112185,0.686722 -6.001202,0.971742 -7.946771,-0.441443 z" />
      <path
         id="path8-1"
         style="fill:#f9f9f9;fill-opacity:0.310287;stroke:none;stroke-width:0.0680164px;stroke-linecap:butt;stroke-linejoin:miter;stroke-opacity:1"
         d="m 68.328511,47.327003 -0.122216,-0.601255 c 0.02716,0.0032 0.05372,0.0073 0.0813,0.0098 a 4.1468854,2.5177522 0 0 1 3.899655,-1.676635 4.1468854,2.5177522 0 0 1 3.848514,1.58537 c 0.07909,0.01294 0.153347,0.02028 0.225304,0.02497 l 0.01422,0.216271 C 73.1631,46.198838 70.274083,45.913818 68.328514,47.327003 Z" />
    </g>
    <g
       id="g7"
       inkscape:export-filename="donut.svg"
       inkscape:export-xdpi="147.17432"
       inkscape:export-ydpi="147.17432">
      <path
         id="path9"
         style="fill:#ffb380;stroke:#000000;stroke-width:0.329231;stroke-linejoin:round;paint-order:stroke fill markers"
         d="m 37.55415,61.492659 c -4.868618,-0.06644 -8.561761,4.039069 -8.429126,8.429049 0.140585,4.65313 3.773873,8.429127 8.429126,8.429127 4.655254,0 7.479223,-3.871801 8.429049,-8.429127 0.561005,-2.691734 -3.571566,-8.362762 -8.429049,-8.429049 z m 0,4.359895 a 3.9238872,3.9238872 0 0 1 3.923898,3.923821 3.9238872,3.9238872 0 0 1 -3.923898,3.923899 3.9238872,3.9238872 0 0 1 -3.923899,-3.923899 3.9238872,3.9238872 0 0 1 3.923899,-3.923821 z" />
      <path
         id="path11"
         style="display:inline;fill:#502d16;stroke-width:0.329231;stroke-linejoin:round;paint-order:stroke fill markers"
         d="m 39.298119,62.727945 c -1.167579,0 -3.332795,-0.37171 -4.429421,-0.06152 -1.288803,0.36455 -3.351043,1.840366 -4.010205,2.742435 -0.592102,0.810294 -1.006768,1.754328 -1.006768,2.98692 0,1.076802 -0.770885,3.193465 -0.130866,4.040503 0.535934,0.709286 2.162547,3.816119 2.775174,4.384621 1.218809,1.131025 3.554915,1.166601 5.348794,1.166601 0.595759,0 1.900349,-0.730253 2.451246,-0.873565 1.242462,-0.323217 2.731337,-1.677406 3.532731,-2.366676 1.093248,-0.940291 1.171471,-2.850355 1.064488,-4.680199 -0.03763,-0.643541 -0.02127,-1.798189 -0.01501,-2.324614 0.01324,-1.112183 -0.662276,-1.579019 -1.260932,-2.492264 -0.779005,-1.18837 -0.532664,-2.311879 -2.133372,-2.400806 z m -1.889278,4.432553 c 1.60525,6e-6 2.906562,1.203718 2.906571,2.688574 -9e-6,1.484855 -1.301321,2.688567 -2.906571,2.688573 -1.60528,3.4e-5 -2.90664,-1.203689 -2.906649,-2.688573 9e-6,-1.484885 1.301369,-2.688608 2.906649,-2.688574 z"
         sodipodi:nodetypes="csssssssssssscccccc" />
      <rect
         style="fill:#d40000;fill-opacity:1;stroke:none;stroke-width:0.089756;stroke-linejoin:round;stroke-dasharray:none;paint-order:stroke fill markers"
         id="use39"
         width="0.5595268"
         height="0.17674766"
         x="64.953941"
         y="34.134167"
         ry="0.039277259"
         transform="rotate(35.04864)" />
      <rect
         style="fill:#d40000;fill-opacity:1;stroke:none;stroke-width:0.089756;stroke-linejoin:round;stroke-dasharray:none;paint-order:stroke fill markers"
         id="use40"
         width="0.55952674"
         height="0.17674765"
         x="-14.947375"
         y="72.74379"
         ry="0.039277259"
         transform="rotate(-39.638705)" />
      <rect
         style="fill:#d40000;fill-opacity:1;stroke:none;stroke-width:0.089756;stroke-linejoin:round;stroke-dasharray:none;paint-order:stroke fill markers"
         id="use41"
         width="0.5595268"
         height="0.17674766"
         x="24.86351"
         y="74.440651"
         ry="0.039277259"
         transform="rotate(-14.119964)" />
      <rect
         style="fill:#d40000;fill-opacity:1;stroke:none;stroke-width:0.089756;stroke-linejoin:round;stroke-dasharray:none;paint-order:stroke fill markers"
         id="use42"
         width="0.5595268"
         height="0.17674766"
         x="81.90242"
         y="8.57582"
         ry="0.039277259"
         transform="rotate(51.954188)" />
      <rect
         style="fill:#d40000;fill-opacity:1;stroke:none;stroke-width:0.089756;stroke-linejoin:round;stroke-dasharray:none;paint-order:stroke fill markers"
         id="use43"
         width="0.5595268"
         height="0.17674766"
         x="69.380234"
         y="-51.092533"
         ry="0.039277259"
         transform="rotate(98.638367)" />
      <rect
         style="fill:#d40000;fill-opacity:1;stroke:none;stroke-width:0.089756;stroke-linejoin:round;stroke-dasharray:none;paint-order:stroke fill markers"
         id="use44"
         width="0.5595268"
         height="0.17674766"
         x="-28.653839"
         y="77.901497"
         ry="0.039277259"
         transform="rotate(-49.503949)" />
      <rect
         style="fill:#d40000;fill-opacity:1;stroke:none;stroke-width:0.089756;stroke-linejoin:round;stroke-dasharray:none;paint-order:stroke fill markers"
         id="use45"
         width="0.55952674"
         height="0.17674765"
         x="19.37211"
         y="73.402603"
         ry="0.039277259"
         transform="rotate(-16.735119)" />
      <rect
         style="fill:#d40000;fill-opacity:1;stroke:none;stroke-width:0.089756;stroke-linejoin:round;stroke-dasharray:none;paint-order:stroke fill markers"
         id="use46"
         width="0.55952674"
         height="0.17674765"
         x="44.821724"
         y="-65.782837"
         ry="0.039277259"
         transform="rotate(120.91696)" />
      <rect
         style="fill:#d40000;fill-opacity:1;stroke:none;stroke-width:0.089756;stroke-linejoin:round;stroke-dasharray:none;paint-order:stroke fill markers"
         id="use47"
         width="0.5595268"
         height="0.17674766"
         x="78.059929"
         y="-3.4030988"
         ry="0.039277259"
         transform="rotate(67.831973)" />
      <rect
         style="fill:#d40000;fill-opacity:1;stroke:none;stroke-width:0.089756;stroke-linejoin:round;stroke-dasharray:none;paint-order:stroke fill markers"
         id="use48"
         width="0.55952674"
         height="0.17674765"
         x="2.2317216"
         y="-76.333618"
         ry="0.039277259"
         transform="rotate(154.51985)" />
      <rect
         style="fill:#d40000;fill-opacity:1;stroke:none;stroke-width:0.089756;stroke-linejoin:round;stroke-dasharray:none;paint-order:stroke fill markers"
         id="use49"
         width="0.5595268"
         height="0.17674766"
         x="76.066841"
         y="1.171536"
         ry="0.039277259"
         transform="rotate(64.872789)" />
      <rect
         style="fill:#d40000;fill-opacity:1;stroke:none;stroke-width:0.089756;stroke-linejoin:round;stroke-dasharray:none;paint-order:stroke fill markers"
         id="use50"
         width="0.5595268"
         height="0.17674766"
         x="-1.2865357"
         y="-82.932686"
         ry="0.039277259"
         transform="rotate(156.40787)" />
      <rect
         style="fill:#d40000;fill-opacity:1;stroke:none;stroke-width:0.089756;stroke-linejoin:round;stroke-dasharray:none;paint-order:stroke fill markers"
         id="use51"
         width="0.5595268"
         height="0.17674766"
         x="-78.877266"
         y="31.804714"
         ry="0.039277259"
         transform="rotate(-93.929371)" />
      <rect
         style="fill:#d40000;fill-opacity:1;stroke:none;stroke-width:0.089756;stroke-linejoin:round;stroke-dasharray:none;paint-order:stroke fill markers"
         id="use52"
         width="0.5595268"
         height="0.17674766"
         x="-1.4470953"
         y="-80.033287"
         ry="0.039277259"
         transform="rotate(157.42481)" />
      <rect
         style="fill:#d40000;fill-opacity:1;stroke:none;stroke-width:0.089756;stroke-linejoin:round;stroke-dasharray:none;paint-order:stroke fill markers"
         id="use53"
         width="0.5595268"
         height="0.17674766"
         x="-57.569241"
         y="-51.951775"
         ry="0.039277259"
         transform="rotate(-156.0686)" />
      <rect
         style="fill:#d40000;fill-opacity:1;stroke:none;stroke-width:0.089756;stroke-linejoin:round;stroke-dasharray:none;paint-order:stroke fill markers"
         id="use54"
         width="0.55952674"
         height="0.17674765"
         x="-69.331612"
         y="-26.675835"
         ry="0.039277259"
         transform="rotate(-137.32382)" />
      <rect
         style="fill:#d40000;fill-opacity:1;stroke:none;stroke-width:0.089756;stroke-linejoin:round;stroke-dasharray:none;paint-order:stroke fill markers"
         id="use55"
         width="0.5595268"
         height="0.17674765"
         x="-69.590912"
         y="20.282801"
         ry="0.039277259"
         transform="rotate(-101.42632)" />
      <rect
         style="fill:#d40000;fill-opacity:1;stroke:none;stroke-width:0.089756;stroke-linejoin:round;stroke-dasharray:none;paint-order:stroke fill markers"
         id="use56"
         width="0.5595268"
         height="0.17674766"
         x="73.420059"
         y="-16.916925"
         ry="0.039277259"
         transform="rotate(78.056063)" />
      <rect
         style="fill:#d40000;fill-opacity:1;stroke:none;stroke-width:0.089756;stroke-linejoin:round;stroke-dasharray:none;paint-order:stroke fill markers"
         id="use57"
         width="0.5595268"
         height="0.17674766"
         x="46.240082"
         y="-57.572651"
         ry="0.039277259"
         transform="rotate(109.95195)" />
      <rect
         style="fill:#d40000;fill-opacity:1;stroke:none;stroke-width:0.089756;stroke-linejoin:round;stroke-dasharray:none;paint-order:stroke fill markers"
         id="use58"
         width="0.5595268"
         height="0.17674766"
         x="-44.101376"
         y="60.533649"
         ry="0.039277259"
         transform="rotate(-67.17926)" />
      <rect
         style="fill:#d40000;fill-opacity:1;stroke:none;stroke-width:0.089756;stroke-linejoin:round;stroke-dasharray:none;paint-order:stroke fill markers"
         id="use59"
         width="0.55952674"
         height="0.17674765"
         x="53.015247"
         y="-64.157509"
         ry="0.039277259"
         transform="rotate(107.95386)" />
      <rect
         style="fill:#d40000;fill-opacity:1;stroke:none;stroke-width:0.089756;stroke-linejoin:round;stroke-dasharray:none;paint-order:stroke fill markers"
         id="use60"
         width="0.5595268"
         height="0.17674766"
         x="-70.920845"
         y="29.498913"
         ry="0.039277259"
         transform="rotate(-97.057863)" />
      <rect
         style="fill:#d40000;fill-opacity:1;stroke:none;stroke-width:0.089756;stroke-linejoin:round;stroke-dasharray:none;paint-order:stroke fill markers"
         id="use61"
         width="0.5595268"
         height="0.17674766"
         x="2.6607518"
         y="-73.836189"
         ry="0.039277259"
         transform="rotate(147.67635)" />
      <rect
         style="fill:#d40000;fill-opacity:1;stroke:none;stroke-width:0.089756;stroke-linejoin:round;stroke-dasharray:none;paint-order:stroke fill markers"
         id="use62"
         width="0.55952674"
         height="0.17674765"
         x="31.53537"
         y="-69.9776"
         ry="0.039277259"
         transform="rotate(129.42604)" />
      <rect
         style="fill:#d40000;fill-opacity:1;stroke:none;stroke-width:0.089756;stroke-linejoin:round;stroke-dasharray:none;paint-order:stroke fill markers"
         id="use63"
         width="0.55952674"
         height="0.17674765"
         x="-56.32531"
         y="-49.906322"
         ry="0.039277259"
         transform="rotate(-157.47316)" />
      <rect
         style="fill:#d40000;fill-opacity:1;stroke:none;stroke-width:0.089756;stroke-linejoin:round;stroke-dasharray:none;paint-order:stroke fill markers"
         id="use64"
         width="0.5595268"
         height="0.17674766"
         x="72.899086"
         y="14.871675"
         ry="0.039277259"
         transform="rotate(53.615483)" />
      <rect
         style="fill:#d40000;fill-opacity:1;stroke:none;stroke-width:0.089756;stroke-linejoin:round;stroke-dasharray:none;paint-order:stroke fill markers"
         id="use65"
         width="0.5595268"
         height="0.17674766"
         x="-80.591942"
         y="-14.757606"
         ry="0.039277259"
         transform="rotate(-130.53387)" />
      <rect
         style="fill:#d40000;fill-opacity:1;stroke:none;stroke-width:0.089756;stroke-linejoin:round;stroke-dasharray:none;paint-order:stroke fill markers"
         id="use66"
         width="0.55952674"
         height="0.17674765"
         x="-61.785618"
         y="56.137077"
         ry="0.039277259"
         transform="rotate(-71.994796)" />
      <rect
         style="fill:#d40000;fill-opacity:1;stroke:none;stroke-width:0.089756;stroke-linejoin:round;stroke-dasharray:none;paint-order:stroke fill markers"
         id="use67"
         width="0.55952674"
         height="0.17674765"
         x="80.416977"
         y="18.960135"
         ry="0.039277259"
         transform="rotate(49.729176)" />
      <rect
         style="fill:#d40000;fill-opacity:1;stroke:none;stroke-width:0.089756;stroke-linejoin:round;stroke-dasharray:none;paint-order:stroke fill markers"
         id="use68"
         width="0.55952674"
         height="0.17674765"
         x="-83.530975"
         y="4.004786"
         ry="0.039277259"
         transform="rotate(-114.4099)" />
      <rect
         style="fill:#d40000;fill-opacity:1;stroke:none;stroke-width:0.089756;stroke-linejoin:round;stroke-dasharray:none;paint-order:stroke fill markers"
         id="use69"
         width="0.5595268"
         height="0.17674765"
         x="-54.478077"
         y="62.34457"
         ry="0.039277259"
         transform="rotate(-69.241072)" />
      <rect
         style="fill:#d40000;fill-opacity:1;stroke:none;stroke-width:0.089756;stroke-linejoin:round;stroke-dasharray:none;paint-order:stroke fill markers"
         id="use70"
         width="0.5595268"
         height="0.17674766"
         x="-59.924377"
         y="61.074059"
         ry="0.039277259"
         transform="rotate(-71.721736)" />
      <rect
         style="fill:#d40000;fill-opacity:1;stroke:none;stroke-width:0.089756;stroke-linejoin:round;stroke-dasharray:none;paint-order:stroke fill markers"
         id="use71"
         width="0.55952674"
         height="0.17674765"
         x="-71.485107"
         y="46.733353"
         ry="0.039277259"
         transform="rotate(-84.936373)" />
      <rect
         style="fill:#d40000;fill-opacity:1;stroke:none;stroke-width:0.089756;stroke-linejoin:round;stroke-dasharray:none;paint-order:stroke fill markers"
         id="use72"
         width="0.5595268"
         height="0.17674766"
         x="49.807232"
         y="68.939415"
         ry="0.039277259"
         transform="rotate(6.9086272)" />
      <rect
         style="fill:#d40000;fill-opacity:1;stroke:none;stroke-width:0.089756;stroke-linejoin:round;stroke-dasharray:none;paint-order:stroke fill markers"
         id="use73"
         width="0.5595268"
         height="0.17674766"
         x="-79.389503"
         y="-20.825438"
         ry="0.039277259"
         transform="rotate(-136.39144)" />
      <rect
         style="fill:#d40000;fill-opacity:1;stroke:none;stroke-width:0.089756;stroke-linejoin:round;stroke-dasharray:none;paint-order:stroke fill markers"
         id="use74"
         width="0.5595268"
         height="0.17674766"
         x="-78.706688"
         y="1.0545878"
         ry="0.039277259"
         transform="rotate(-122.57549)" />
      <rect
         style="fill:#d40000;fill-opacity:1;stroke:none;stroke-width:0.089756;stroke-linejoin:round;stroke-dasharray:none;paint-order:stroke fill markers"
         id="use75"
         width="0.55952674"
         height="0.17674765"
         x="-71.096519"
         y="-27.118944"
         ry="0.039277259"
         transform="rotate(-143.15373)" />
      <rect
         style="fill:#d40000;fill-opacity:1;stroke:none;stroke-width:0.089756;stroke-linejoin:round;stroke-dasharray:none;paint-order:stroke fill markers"
         id="use76"
         width="0.5595268"
         height="0.17674766"
         x="-58.54414"
         y="55.044762"
         ry="0.039277259"
         transform="rotate(-77.43705)" />
      <rect
         style="fill:#d40000;fill-opacity:1;stroke:none;stroke-width:0.089756;stroke-linejoin:round;stroke-dasharray:none;paint-order:stroke fill markers"
         id="use77"
         width="0.55952674"
         height="0.17674765"
         x="46.577076"
         y="62.614193"
         ry="0.039277259"
         transform="rotate(4.9766949)" />
      <rect
         style="fill:#d40000;fill-opacity:1;stroke:none;stroke-width:0.089756;stroke-linejoin:round;stroke-dasharray:none;paint-order:stroke fill markers"
         id="use78"
         width="0.55952674"
         height="0.17674765"
         x="-35.891644"
         y="71.987671"
         ry="0.039277259"
         transform="rotate(-58.900494)" />
      <rect
         style="fill:#d40000;fill-opacity:1;stroke:none;stroke-width:0.089756;stroke-linejoin:round;stroke-dasharray:none;paint-order:stroke fill markers"
         id="use79"
         width="0.5595268"
         height="0.17674766"
         x="-82.733429"
         y="-2.658828"
         ry="0.039277259"
         transform="rotate(-116.96558)" />
      <rect
         style="fill:#3339ff;fill-opacity:1;stroke:none;stroke-width:0.089756;stroke-linejoin:round;stroke-dasharray:none;paint-order:stroke fill markers"
         id="use80"
         width="0.5595268"
         height="0.17674766"
         x="30.836515"
         y="74.299942"
         ry="0.039277259"
         transform="rotate(-8.5815392)" />
      <rect
         style="fill:#3339ff;fill-opacity:1;stroke:none;stroke-width:0.089756;stroke-linejoin:round;stroke-dasharray:none;paint-order:stroke fill markers"
         id="use81"
         width="0.55952674"
         height="0.17674765"
         x="64.932037"
         y="49.033604"
         ry="0.039277259"
         transform="rotate(20.648487)" />
      <rect
         style="fill:#3339ff;fill-opacity:1;stroke:none;stroke-width:0.089756;stroke-linejoin:round;stroke-dasharray:none;paint-order:stroke fill markers"
         id="use82"
         width="0.55952674"
         height="0.17674765"
         x="23.971624"
         y="73.82489"
         ry="0.039277259"
         transform="rotate(-12.304672)" />
      <rect
         style="fill:#3339ff;fill-opacity:1;stroke:none;stroke-width:0.089756;stroke-linejoin:round;stroke-dasharray:none;paint-order:stroke fill markers"
         id="use83"
         width="0.5595268"
         height="0.17674766"
         x="46.884125"
         y="58.964184"
         ry="0.039277259"
         transform="rotate(6.867698)" />
      <rect
         style="fill:#3339ff;fill-opacity:1;stroke:none;stroke-width:0.089756;stroke-linejoin:round;stroke-dasharray:none;paint-order:stroke fill markers"
         id="use84"
         width="0.55952674"
         height="0.17674765"
         x="-75.298424"
         y="23.489767"
         ry="0.039277259"
         transform="rotate(-103.05442)" />
      <rect
         style="fill:#3339ff;fill-opacity:1;stroke:none;stroke-width:0.089756;stroke-linejoin:round;stroke-dasharray:none;paint-order:stroke fill markers"
         id="use85"
         width="0.5595268"
         height="0.17674766"
         x="40.059689"
         y="66.193214"
         ry="0.039277259"
         transform="rotate(0.34743643)" />
      <rect
         style="fill:#3339ff;fill-opacity:1;stroke:none;stroke-width:0.089756;stroke-linejoin:round;stroke-dasharray:none;paint-order:stroke fill markers"
         id="use86"
         width="0.5595268"
         height="0.17674765"
         x="69.415535"
         y="-29.39337"
         ry="0.039277259"
         transform="rotate(83.945245)" />
      <rect
         style="fill:#3339ff;fill-opacity:1;stroke:none;stroke-width:0.089756;stroke-linejoin:round;stroke-dasharray:none;paint-order:stroke fill markers"
         id="use87"
         width="0.5595268"
         height="0.17674766"
         x="-5.8246951"
         y="-74.380547"
         ry="0.039277259"
         transform="rotate(154.31931)" />
      <rect
         style="fill:#3339ff;fill-opacity:1;stroke:none;stroke-width:0.089756;stroke-linejoin:round;stroke-dasharray:none;paint-order:stroke fill markers"
         id="use88"
         width="0.5595268"
         height="0.17674766"
         x="-72.426407"
         y="9.9820032"
         ry="0.039277259"
         transform="rotate(-109.47579)" />
      <rect
         style="fill:#3339ff;fill-opacity:1;stroke:none;stroke-width:0.089756;stroke-linejoin:round;stroke-dasharray:none;paint-order:stroke fill markers"
         id="use89"
         width="0.5595268"
         height="0.17674765"
         x="-14.378472"
         y="76.573441"
         ry="0.039277259"
         transform="rotate(-33.197588)" />
      <rect
         style="fill:#3339ff;fill-opacity:1;stroke:none;stroke-width:0.089756;stroke-linejoin:round;stroke-dasharray:none;paint-order:stroke fill markers"
         id="use90"
         width="0.55952674"
         height="0.17674765"
         x="29.004538"
         y="-70.424141"
         ry="0.039277259"
         transform="rotate(132.76957)" />
      <rect
         style="fill:#3339ff;fill-opacity:1;stroke:none;stroke-width:0.089756;stroke-linejoin:round;stroke-dasharray:none;paint-order:stroke fill markers"
         id="use91"
         width="0.55952674"
         height="0.17674765"
         x="58.948456"
         y="52.580322"
         ry="0.039277259"
         transform="rotate(24.882459)" />
      <rect
         style="fill:#3339ff;fill-opacity:1;stroke:none;stroke-width:0.089756;stroke-linejoin:round;stroke-dasharray:none;paint-order:stroke fill markers"
         id="use92"
         width="0.5595268"
         height="0.17674765"
         x="-4.8599119"
         y="77.414238"
         ry="0.039277259"
         transform="rotate(-29.053562)" />
      <rect
         style="fill:#3339ff;fill-opacity:1;stroke:none;stroke-width:0.089756;stroke-linejoin:round;stroke-dasharray:none;paint-order:stroke fill markers"
         id="use93"
         width="0.55952674"
         height="0.17674765"
         x="-53.229191"
         y="51.247742"
         ry="0.039277259"
         transform="rotate(-71.364608)" />
      <rect
         style="fill:#3339ff;fill-opacity:1;stroke:none;stroke-width:0.089756;stroke-linejoin:round;stroke-dasharray:none;paint-order:stroke fill markers"
         id="use94"
         width="0.5595268"
         height="0.17674766"
         x="-39.954716"
         y="62.969685"
         ry="0.039277259"
         transform="rotate(-57.393317)" />
      <rect
         style="fill:#3339ff;fill-opacity:1;stroke:none;stroke-width:0.089756;stroke-linejoin:round;stroke-dasharray:none;paint-order:stroke fill markers"
         id="use95"
         width="0.5595268"
         height="0.17674765"
         x="5.6131325"
         y="74.354805"
         ry="0.039277259"
         transform="rotate(-21.781394)" />
      <rect
         style="fill:#3339ff;fill-opacity:1;stroke:none;stroke-width:0.089756;stroke-linejoin:round;stroke-dasharray:none;paint-order:stroke fill markers"
         id="use96"
         width="0.5595268"
         height="0.17674766"
         x="72.805275"
         y="8.5051947"
         ry="0.039277259"
         transform="rotate(56.649924)" />
      <rect
         style="fill:#3339ff;fill-opacity:1;stroke:none;stroke-width:0.089756;stroke-linejoin:round;stroke-dasharray:none;paint-order:stroke fill markers"
         id="use97"
         width="0.5595268"
         height="0.17674766"
         x="-21.194744"
         y="72.002159"
         ry="0.039277259"
         transform="rotate(-42.98584)" />
      <rect
         style="fill:#3339ff;fill-opacity:1;stroke:none;stroke-width:0.089756;stroke-linejoin:round;stroke-dasharray:none;paint-order:stroke fill markers"
         id="use98"
         width="0.55952674"
         height="0.17674765"
         x="-14.844666"
         y="70.969276"
         ry="0.039277259"
         transform="rotate(-40.650527)" />
      <rect
         style="fill:#3339ff;fill-opacity:1;stroke:none;stroke-width:0.089756;stroke-linejoin:round;stroke-dasharray:none;paint-order:stroke fill markers"
         id="use99"
         width="0.5595268"
         height="0.17674766"
         x="-25.873529"
         y="73.339775"
         ry="0.039277259"
         transform="rotate(-43.893323)" />
      <rect
         style="fill:#3339ff;fill-opacity:1;stroke:none;stroke-width:0.089756;stroke-linejoin:round;stroke-dasharray:none;paint-order:stroke fill markers"
         id="use100"
         width="0.5595268"
         height="0.17674765"
         x="80.335892"
         y="29.631823"
         ry="0.039277259"
         transform="rotate(42.518283)" />
      <rect
         style="fill:#3339ff;fill-opacity:1;stroke:none;stroke-width:0.089756;stroke-linejoin:round;stroke-dasharray:none;paint-order:stroke fill markers"
         id="use101"
         width="0.5595268"
         height="0.17674766"
         x="-36.871456"
         y="76.350769"
         ry="0.039277259"
         transform="rotate(-55.210457)" />
      <rect
         style="fill:#3339ff;fill-opacity:1;stroke:none;stroke-width:0.089756;stroke-linejoin:round;stroke-dasharray:none;paint-order:stroke fill markers"
         id="use102"
         width="0.5595268"
         height="0.17674766"
         x="83.433189"
         y="-21.2423"
         ry="0.039277259"
         transform="rotate(75.309968)" />
      <rect
         style="fill:#3339ff;fill-opacity:1;stroke:none;stroke-width:0.089756;stroke-linejoin:round;stroke-dasharray:none;paint-order:stroke fill markers"
         id="use103"
         width="0.55952674"
         height="0.17674765"
         x="-83.79686"
         y="-11.216013"
         ry="0.039277259"
         transform="rotate(-126.3043)" />
      <rect
         style="fill:#3339ff;fill-opacity:1;stroke:none;stroke-width:0.089756;stroke-linejoin:round;stroke-dasharray:none;paint-order:stroke fill markers"
         id="use104"
         width="0.5595268"
         height="0.17674766"
         x="5.08815"
         y="-78.972176"
         ry="0.039277259"
         transform="rotate(151.77197)" />
      <rect
         style="fill:#3339ff;fill-opacity:1;stroke:none;stroke-width:0.089756;stroke-linejoin:round;stroke-dasharray:none;paint-order:stroke fill markers"
         id="use105"
         width="0.55952674"
         height="0.17674765"
         x="-84.363869"
         y="-2.8549075"
         ry="0.039277259"
         transform="rotate(-117.45093)" />
      <rect
         style="fill:#3339ff;fill-opacity:1;stroke:none;stroke-width:0.089756;stroke-linejoin:round;stroke-dasharray:none;paint-order:stroke fill markers"
         id="use106"
         width="0.5595268"
         height="0.17674766"
         x="63.75494"
         y="-52.14407"
         ry="0.039277259"
         transform="rotate(102.43641)" />
      <rect
         style="fill:#3339ff;fill-opacity:1;stroke:none;stroke-width:0.089756;stroke-linejoin:round;stroke-dasharray:none;paint-order:stroke fill markers"
         id="use107"
         width="0.55952674"
         height="0.17674765"
         x="-62.139656"
         y="-53.52795"
         ry="0.039277259"
         transform="rotate(-157.7531)" />
      <rect
         style="fill:#3339ff;fill-opacity:1;stroke:none;stroke-width:0.089756;stroke-linejoin:round;stroke-dasharray:none;paint-order:stroke fill markers"
         id="use108"
         width="0.5595268"
         height="0.17674766"
         x="-79.880592"
         y="20.663702"
         ry="0.039277259"
         transform="rotate(-106.26972)" />
      <rect
         style="fill:#3339ff;fill-opacity:1;stroke:none;stroke-width:0.089756;stroke-linejoin:round;stroke-dasharray:none;paint-order:stroke fill markers"
         id="use109"
         width="0.55952674"
         height="0.17674765"
         x="62.288048"
         y="-48.395741"
         ry="0.039277259"
         transform="rotate(95.570433)" />
      <rect
         style="fill:#3339ff;fill-opacity:1;stroke:none;stroke-width:0.089756;stroke-linejoin:round;stroke-dasharray:none;paint-order:stroke fill markers"
         id="use110"
         width="0.5595268"
         height="0.17674766"
         x="75.103477"
         y="-39.884888"
         ry="0.039277259"
         transform="rotate(86.433434)" />
      <rect
         style="fill:#3339ff;fill-opacity:1;stroke:none;stroke-width:0.089756;stroke-linejoin:round;stroke-dasharray:none;paint-order:stroke fill markers"
         id="use111"
         width="0.5595268"
         height="0.17674766"
         x="78.129433"
         y="-27.516571"
         ry="0.039277259"
         transform="rotate(83.98929)" />
      <rect
         style="fill:#3339ff;fill-opacity:1;stroke:none;stroke-width:0.089756;stroke-linejoin:round;stroke-dasharray:none;paint-order:stroke fill markers"
         id="use112"
         width="0.55952674"
         height="0.17674765"
         x="67.620277"
         y="-46.328114"
         ry="0.039277259"
         transform="rotate(99.735286)" />
      <rect
         style="fill:#3339ff;fill-opacity:1;stroke:none;stroke-width:0.089756;stroke-linejoin:round;stroke-dasharray:none;paint-order:stroke fill markers"
         id="use113"
         width="0.5595268"
         height="0.17674766"
         x="21.412306"
         y="76.301445"
         ry="0.039277259"
         transform="rotate(-9.2140546)" />
      <rect
         style="fill:#3339ff;fill-opacity:1;stroke:none;stroke-width:0.089756;stroke-linejoin:round;stroke-dasharray:none;paint-order:stroke fill markers"
         id="use114"
         width="0.5595268"
         height="0.17674766"
         x="-37.000919"
         y="69.1698"
         ry="0.039277259"
         transform="rotate(-53.216673)" />
      <rect
         style="fill:#3dff59;fill-opacity:1;stroke:none;stroke-width:0.089756;stroke-linejoin:round;stroke-dasharray:none;paint-order:stroke fill markers"
         id="use115"
         width="0.55952674"
         height="0.17674765"
         x="37.612183"
         y="73.617592"
         ry="0.039277259"
         transform="rotate(-0.40171597)" />
      <rect
         style="fill:#3dff59;fill-opacity:1;stroke:none;stroke-width:0.089756;stroke-linejoin:round;stroke-dasharray:none;paint-order:stroke fill markers"
         id="use116"
         width="0.5595268"
         height="0.17674766"
         x="67.059998"
         y="-46.491623"
         ry="0.039277259"
         transform="rotate(101.19919)" />
      <rect
         style="fill:#3dff59;fill-opacity:1;stroke:none;stroke-width:0.089756;stroke-linejoin:round;stroke-dasharray:none;paint-order:stroke fill markers"
         id="use117"
         width="0.5595268"
         height="0.17674766"
         x="14.502715"
         y="82.644325"
         ry="0.039277259"
         transform="rotate(-16.401036)" />
      <rect
         style="fill:#3dff59;fill-opacity:1;stroke:none;stroke-width:0.089756;stroke-linejoin:round;stroke-dasharray:none;paint-order:stroke fill markers"
         id="use118"
         width="0.5595268"
         height="0.17674766"
         x="65.113815"
         y="36.880779"
         ry="0.039277259"
         transform="rotate(35.009331)" />
      <rect
         style="fill:#3dff59;fill-opacity:1;stroke:none;stroke-width:0.089756;stroke-linejoin:round;stroke-dasharray:none;paint-order:stroke fill markers"
         id="use119"
         width="0.5595268"
         height="0.17674766"
         x="68.412971"
         y="-44.147305"
         ry="0.039277259"
         transform="rotate(97.747357)" />
      <rect
         style="fill:#3dff59;fill-opacity:1;stroke:none;stroke-width:0.089756;stroke-linejoin:round;stroke-dasharray:none;paint-order:stroke fill markers"
         id="use120"
         width="0.5595268"
         height="0.17674766"
         x="71.953133"
         y="-47.163818"
         ry="0.039277259"
         transform="rotate(96.816088)" />
      <rect
         style="fill:#3dff59;fill-opacity:1;stroke:none;stroke-width:0.089756;stroke-linejoin:round;stroke-dasharray:none;paint-order:stroke fill markers"
         id="use121"
         width="0.55952674"
         height="0.17674765"
         x="68.111961"
         y="-50.085693"
         ry="0.039277259"
         transform="rotate(99.833575)" />
      <rect
         style="fill:#3dff59;fill-opacity:1;stroke:none;stroke-width:0.089756;stroke-linejoin:round;stroke-dasharray:none;paint-order:stroke fill markers"
         id="use122"
         width="0.5595268"
         height="0.17674766"
         x="72.013954"
         y="-34.216579"
         ry="0.039277259"
         transform="rotate(84.017484)" />
      <rect
         style="fill:#3dff59;fill-opacity:1;stroke:none;stroke-width:0.089756;stroke-linejoin:round;stroke-dasharray:none;paint-order:stroke fill markers"
         id="use123"
         width="0.5595268"
         height="0.17674766"
         x="65.517555"
         y="-41.535278"
         ry="0.039277259"
         transform="rotate(89.898919)" />
      <rect
         style="fill:#3dff59;fill-opacity:1;stroke:none;stroke-width:0.089756;stroke-linejoin:round;stroke-dasharray:none;paint-order:stroke fill markers"
         id="use124"
         width="0.5595268"
         height="0.17674766"
         x="-70.180939"
         y="-21.313618"
         ry="0.039277259"
         transform="rotate(-136.41304)" />
      <rect
         style="fill:#3dff59;fill-opacity:1;stroke:none;stroke-width:0.089756;stroke-linejoin:round;stroke-dasharray:none;paint-order:stroke fill markers"
         id="use125"
         width="0.55952674"
         height="0.17674765"
         x="4.7545843"
         y="75.025757"
         ry="0.039277259"
         transform="rotate(-23.436772)" />
      <rect
         style="fill:#3dff59;fill-opacity:1;stroke:none;stroke-width:0.089756;stroke-linejoin:round;stroke-dasharray:none;paint-order:stroke fill markers"
         id="use126"
         width="0.5595268"
         height="0.17674766"
         x="-54.371601"
         y="50.559483"
         ry="0.039277259"
         transform="rotate(-74.749021)" />
      <rect
         style="fill:#3dff59;fill-opacity:1;stroke:none;stroke-width:0.089756;stroke-linejoin:round;stroke-dasharray:none;paint-order:stroke fill markers"
         id="use127"
         width="0.5595268"
         height="0.17674766"
         x="58.927261"
         y="44.896832"
         ry="0.039277259"
         transform="rotate(23.788802)" />
      <rect
         style="fill:#3dff59;fill-opacity:1;stroke:none;stroke-width:0.089756;stroke-linejoin:round;stroke-dasharray:none;paint-order:stroke fill markers"
         id="use128"
         width="0.5595268"
         height="0.17674766"
         x="62.8773"
         y="40.938694"
         ry="0.039277259"
         transform="rotate(27.410288)" />
      <rect
         style="fill:#3dff59;fill-opacity:1;stroke:none;stroke-width:0.089756;stroke-linejoin:round;stroke-dasharray:none;paint-order:stroke fill markers"
         id="use129"
         width="0.5595268"
         height="0.17674766"
         x="71.211525"
         y="-25.71303"
         ry="0.039277259"
         transform="rotate(82.291485)" />
      <rect
         style="fill:#3dff59;fill-opacity:1;stroke:none;stroke-width:0.089756;stroke-linejoin:round;stroke-dasharray:none;paint-order:stroke fill markers"
         id="use130"
         width="0.55952674"
         height="0.17674765"
         x="-59.478527"
         y="44.165569"
         ry="0.039277259"
         transform="rotate(-82.641186)" />
      <rect
         style="fill:#3dff59;fill-opacity:1;stroke:none;stroke-width:0.089756;stroke-linejoin:round;stroke-dasharray:none;paint-order:stroke fill markers"
         id="use131"
         width="0.5595268"
         height="0.17674766"
         x="70.255974"
         y="-26.340231"
         ry="0.039277259"
         transform="rotate(79.04294)" />
      <rect
         style="fill:#3dff59;fill-opacity:1;stroke:none;stroke-width:0.089756;stroke-linejoin:round;stroke-dasharray:none;paint-order:stroke fill markers"
         id="use132"
         width="0.55952674"
         height="0.17674765"
         x="-79.12455"
         y="13.892142"
         ry="0.039277259"
         transform="rotate(-111.57739)" />
      <rect
         style="fill:#3dff59;fill-opacity:1;stroke:none;stroke-width:0.089756;stroke-linejoin:round;stroke-dasharray:none;paint-order:stroke fill markers"
         id="use133"
         width="0.5595268"
         height="0.17674766"
         x="-77.835762"
         y="-15.329597"
         ry="0.039277259"
         transform="rotate(-131.84889)" />
      <rect
         style="fill:#3dff59;fill-opacity:1;stroke:none;stroke-width:0.089756;stroke-linejoin:round;stroke-dasharray:none;paint-order:stroke fill markers"
         id="use134"
         width="0.5595268"
         height="0.17674766"
         x="57.771622"
         y="-59.240517"
         ry="0.039277259"
         transform="rotate(105.62455)" />
      <rect
         style="fill:#3dff59;fill-opacity:1;stroke:none;stroke-width:0.089756;stroke-linejoin:round;stroke-dasharray:none;paint-order:stroke fill markers"
         id="use135"
         width="0.55952674"
         height="0.17674765"
         x="7.4769969"
         y="-81.407547"
         ry="0.039277259"
         transform="rotate(143.81408)" />
      <rect
         style="fill:#3dff59;fill-opacity:1;stroke:none;stroke-width:0.089756;stroke-linejoin:round;stroke-dasharray:none;paint-order:stroke fill markers"
         id="use136"
         width="0.55952674"
         height="0.17674765"
         x="-80.696136"
         y="-22.644676"
         ry="0.039277259"
         transform="rotate(-136.87657)" />
      <rect
         style="fill:#3dff59;fill-opacity:1;stroke:none;stroke-width:0.089756;stroke-linejoin:round;stroke-dasharray:none;paint-order:stroke fill markers"
         id="use137"
         width="0.5595268"
         height="0.17674766"
         x="50.4464"
         y="66.854881"
         ry="0.039277259"
         transform="rotate(5.3522141)" />
      <rect
         style="fill:#3dff59;fill-opacity:1;stroke:none;stroke-width:0.089756;stroke-linejoin:round;stroke-dasharray:none;paint-order:stroke fill markers"
         id="use138"
         width="0.5595268"
         height="0.17674766"
         x="80.745369"
         y="-23.346876"
         ry="0.039277259"
         transform="rotate(76.67201)" />
      <rect
         style="fill:#3dff59;fill-opacity:1;stroke:none;stroke-width:0.089756;stroke-linejoin:round;stroke-dasharray:none;paint-order:stroke fill markers"
         id="use139"
         width="0.5595268"
         height="0.17674766"
         x="-57.418941"
         y="59.336498"
         ry="0.039277259"
         transform="rotate(-73.764011)" />
      <rect
         style="fill:#3dff59;fill-opacity:1;stroke:none;stroke-width:0.089756;stroke-linejoin:round;stroke-dasharray:none;paint-order:stroke fill markers"
         id="use140"
         width="0.5595268"
         height="0.17674766"
         x="44.369789"
         y="70.451378"
         ry="0.039277259"
         transform="rotate(3.8906239)" />
      <rect
         style="fill:#3dff59;fill-opacity:1;stroke:none;stroke-width:0.089756;stroke-linejoin:round;stroke-dasharray:none;paint-order:stroke fill markers"
         id="use141"
         width="0.5595268"
         height="0.17674766"
         x="45.657314"
         y="-70.137199"
         ry="0.039277259"
         transform="rotate(117.06305)" />
      <rect
         style="fill:#3dff59;fill-opacity:1;stroke:none;stroke-width:0.089756;stroke-linejoin:round;stroke-dasharray:none;paint-order:stroke fill markers"
         id="use142"
         width="0.55952674"
         height="0.17674765"
         x="74.915672"
         y="-41.126701"
         ry="0.039277259"
         transform="rotate(90.795166)" />
      <rect
         style="fill:#3dff59;fill-opacity:1;stroke:none;stroke-width:0.089756;stroke-linejoin:round;stroke-dasharray:none;paint-order:stroke fill markers"
         id="use143"
         width="0.55952674"
         height="0.17674765"
         x="-26.750816"
         y="77.586594"
         ry="0.039277259"
         transform="rotate(-46.288142)" />
      <rect
         style="fill:#3dff59;fill-opacity:1;stroke:none;stroke-width:0.089756;stroke-linejoin:round;stroke-dasharray:none;paint-order:stroke fill markers"
         id="use144"
         width="0.5595268"
         height="0.17674766"
         x="68.096794"
         y="-50.582691"
         ry="0.039277259"
         transform="rotate(99.219673)" />
      <rect
         style="fill:#3dff59;fill-opacity:1;stroke:none;stroke-width:0.089756;stroke-linejoin:round;stroke-dasharray:none;paint-order:stroke fill markers"
         id="use145"
         width="0.5595268"
         height="0.17674766"
         x="57.554226"
         y="58.770264"
         ry="0.039277259"
         transform="rotate(19.621755)" />
      <rect
         style="fill:#3dff59;fill-opacity:1;stroke:none;stroke-width:0.089756;stroke-linejoin:round;stroke-dasharray:none;paint-order:stroke fill markers"
         id="use146"
         width="0.5595268"
         height="0.17674766"
         x="-69.5429"
         y="43.293423"
         ry="0.039277259"
         transform="rotate(-83.076546)" />
      <rect
         style="fill:#3dff59;fill-opacity:1;stroke:none;stroke-width:0.089756;stroke-linejoin:round;stroke-dasharray:none;paint-order:stroke fill markers"
         id="use147"
         width="0.5595268"
         height="0.17674766"
         x="22.255194"
         y="-78.598701"
         ry="0.039277259"
         transform="rotate(139.86329)" />
      <rect
         style="fill:#3dff59;fill-opacity:1;stroke:none;stroke-width:0.089756;stroke-linejoin:round;stroke-dasharray:none;paint-order:stroke fill markers"
         id="use148"
         width="0.5595268"
         height="0.17674766"
         x="-76.840073"
         y="21.472584"
         ry="0.039277259"
         transform="rotate(-99.982037)" />
      <rect
         style="fill:#3dff59;fill-opacity:1;stroke:none;stroke-width:0.089756;stroke-linejoin:round;stroke-dasharray:none;paint-order:stroke fill markers"
         id="use149"
         width="0.55952674"
         height="0.17674765"
         x="10.360634"
         y="74.963371"
         ry="0.039277259"
         transform="rotate(-17.324936)" />
      <rect
         style="fill:#3dff59;fill-opacity:1;stroke:none;stroke-width:0.089756;stroke-linejoin:round;stroke-dasharray:none;paint-order:stroke fill markers"
         id="use150"
         width="0.55952674"
         height="0.17674765"
         x="31.94619"
         y="-68.414169"
         ry="0.039277259"
         transform="rotate(131.25417)" />
      <rect
         style="fill:#3dff59;fill-opacity:1;stroke:none;stroke-width:0.089756;stroke-linejoin:round;stroke-dasharray:none;paint-order:stroke fill markers"
         id="use151"
         width="0.55952674"
         height="0.17674765"
         x="-63.939079"
         y="46.458744"
         ry="0.039277259"
         transform="rotate(-76.9077)" />
      <rect
         style="fill:#3dff59;fill-opacity:1;stroke:none;stroke-width:0.089756;stroke-linejoin:round;stroke-dasharray:none;paint-order:stroke fill markers"
         id="use152"
         width="0.55952674"
         height="0.17674765"
         x="-59.068634"
         y="-51.173115"
         ry="0.039277259"
         transform="rotate(-154.39028)" />
      <rect
         style="fill:#3dff59;fill-opacity:1;stroke:none;stroke-width:0.089756;stroke-linejoin:round;stroke-dasharray:none;paint-order:stroke fill markers"
         id="use153"
         width="0.55952674"
         height="0.17674765"
         x="-60.029827"
         y="44.422741"
         ry="0.039277259"
         transform="rotate(-77.222208)" />
      <rect
         style="fill:#3dff59;fill-opacity:1;stroke:none;stroke-width:0.089756;stroke-linejoin:round;stroke-dasharray:none;paint-order:stroke fill markers"
         id="use154"
         width="0.5595268"
         height="0.17674765"
         x="-71.232613"
         y="23.910492"
         ry="0.039277259"
         transform="rotate(-100.08391)" />
      <rect
         style="fill:#3dff59;fill-opacity:1;stroke:none;stroke-width:0.089756;stroke-linejoin:round;stroke-dasharray:none;paint-order:stroke fill markers"
         id="use155"
         width="0.5595268"
         height="0.17674766"
         x="73.347298"
         y="-29.516516"
         ry="0.039277259"
         transform="rotate(80.790132)" />
      <rect
         style="fill:#3dff59;fill-opacity:1;stroke:none;stroke-width:0.089756;stroke-linejoin:round;stroke-dasharray:none;paint-order:stroke fill markers"
         id="use156"
         width="0.5595268"
         height="0.17674766"
         x="4.4988604"
         y="85.387833"
         ry="0.039277259"
         transform="rotate(-27.629595)" />
      <rect
         style="fill:#3dff59;fill-opacity:1;stroke:none;stroke-width:0.089756;stroke-linejoin:round;stroke-dasharray:none;paint-order:stroke fill markers"
         id="use157"
         width="0.5595268"
         height="0.17674766"
         x="76.108315"
         y="38.435368"
         ry="0.039277259"
         transform="rotate(33.6595)" />
      <rect
         style="fill:#3dff59;fill-opacity:1;stroke:none;stroke-width:0.089756;stroke-linejoin:round;stroke-dasharray:none;paint-order:stroke fill markers"
         id="use158"
         width="0.5595268"
         height="0.17674766"
         x="70.111366"
         y="44.990406"
         ry="0.039277259"
         transform="rotate(26.962378)" />
      <rect
         style="fill:#fdff00;fill-opacity:1;stroke:none;stroke-width:0.089756;stroke-linejoin:round;stroke-dasharray:none;paint-order:stroke fill markers"
         id="use159"
         width="0.5595268"
         height="0.17674766"
         x="71.686951"
         y="25.95602"
         ry="0.039277259"
         transform="rotate(39.456357)" />
      <rect
         style="fill:#fdff00;fill-opacity:1;stroke:none;stroke-width:0.089756;stroke-linejoin:round;stroke-dasharray:none;paint-order:stroke fill markers"
         id="use160"
         width="0.5595268"
         height="0.17674766"
         x="62.779858"
         y="47.01133"
         ry="0.039277259"
         transform="rotate(28.379552)" />
      <rect
         style="fill:#fdff00;fill-opacity:1;stroke:none;stroke-width:0.089756;stroke-linejoin:round;stroke-dasharray:none;paint-order:stroke fill markers"
         id="use161"
         width="0.55952674"
         height="0.17674765"
         x="81.87059"
         y="-3.2972474"
         ry="0.039277259"
         transform="rotate(66.759855)" />
      <rect
         style="fill:#fdff00;fill-opacity:1;stroke:none;stroke-width:0.089756;stroke-linejoin:round;stroke-dasharray:none;paint-order:stroke fill markers"
         id="use162"
         width="0.5595268"
         height="0.17674766"
         x="81.95919"
         y="16.796331"
         ry="0.039277259"
         transform="rotate(51.380214)" />
      <rect
         style="fill:#fdff00;fill-opacity:1;stroke:none;stroke-width:0.089756;stroke-linejoin:round;stroke-dasharray:none;paint-order:stroke fill markers"
         id="use163"
         width="0.5595268"
         height="0.17674766"
         x="79.944878"
         y="24.643499"
         ry="0.039277259"
         transform="rotate(45.50715)" />
      <rect
         style="fill:#fdff00;fill-opacity:1;stroke:none;stroke-width:0.089756;stroke-linejoin:round;stroke-dasharray:none;paint-order:stroke fill markers"
         id="use164"
         width="0.5595268"
         height="0.17674766"
         x="82.804329"
         y="-21.772303"
         ry="0.039277259"
         transform="rotate(76.45385)" />
      <rect
         style="fill:#fdff00;fill-opacity:1;stroke:none;stroke-width:0.089756;stroke-linejoin:round;stroke-dasharray:none;paint-order:stroke fill markers"
         id="use165"
         width="0.5595268"
         height="0.17674766"
         x="67.723206"
         y="51.241253"
         ry="0.039277259"
         transform="rotate(27.274004)" />
      <rect
         style="fill:#fdff00;fill-opacity:1;stroke:none;stroke-width:0.089756;stroke-linejoin:round;stroke-dasharray:none;paint-order:stroke fill markers"
         id="use166"
         width="0.5595268"
         height="0.17674765"
         x="76.989159"
         y="-29.207357"
         ry="0.039277259"
         transform="rotate(84.279884)" />
      <rect
         style="fill:#fdff00;fill-opacity:1;stroke:none;stroke-width:0.089756;stroke-linejoin:round;stroke-dasharray:none;paint-order:stroke fill markers"
         id="use167"
         width="0.55952674"
         height="0.17674765"
         x="-77.57225"
         y="18.082518"
         ry="0.039277259"
         transform="rotate(-102.23315)" />
      <rect
         style="fill:#fdff00;fill-opacity:1;stroke:none;stroke-width:0.089756;stroke-linejoin:round;stroke-dasharray:none;paint-order:stroke fill markers"
         id="use168"
         width="0.55952674"
         height="0.17674765"
         x="-64.505981"
         y="-36.94191"
         ry="0.039277259"
         transform="rotate(-144.85151)" />
      <rect
         style="fill:#fdff00;fill-opacity:1;stroke:none;stroke-width:0.089756;stroke-linejoin:round;stroke-dasharray:none;paint-order:stroke fill markers"
         id="use169"
         width="0.5595268"
         height="0.17674766"
         x="-77.515511"
         y="21.349926"
         ry="0.039277259"
         transform="rotate(-106.4245)" />
      <rect
         style="fill:#fdff00;fill-opacity:1;stroke:none;stroke-width:0.089756;stroke-linejoin:round;stroke-dasharray:none;paint-order:stroke fill markers"
         id="use170"
         width="0.5595268"
         height="0.17674766"
         x="59.271503"
         y="54.345646"
         ry="0.039277259"
         transform="rotate(17.042285)" />
      <rect
         style="fill:#fdff00;fill-opacity:1;stroke:none;stroke-width:0.089756;stroke-linejoin:round;stroke-dasharray:none;paint-order:stroke fill markers"
         id="use171"
         width="0.5595268"
         height="0.17674766"
         x="61.78767"
         y="57.784363"
         ry="0.039277259"
         transform="rotate(15.359267)" />
      <rect
         style="fill:#fdff00;fill-opacity:1;stroke:none;stroke-width:0.089756;stroke-linejoin:round;stroke-dasharray:none;paint-order:stroke fill markers"
         id="use172"
         width="0.5595268"
         height="0.17674766"
         x="60.161404"
         y="-61.35498"
         ry="0.039277259"
         transform="rotate(106.08589)" />
      <rect
         style="fill:#fdff00;fill-opacity:1;stroke:none;stroke-width:0.089756;stroke-linejoin:round;stroke-dasharray:none;paint-order:stroke fill markers"
         id="use173"
         width="0.55952674"
         height="0.17674765"
         x="54.650455"
         y="-62.264629"
         ry="0.039277259"
         transform="rotate(112.58667)" />
      <rect
         style="fill:#fdff00;fill-opacity:1;stroke:none;stroke-width:0.089756;stroke-linejoin:round;stroke-dasharray:none;paint-order:stroke fill markers"
         id="use174"
         width="0.5595268"
         height="0.17674766"
         x="2.2663589"
         y="-80.627632"
         ry="0.039277259"
         transform="rotate(153.09392)" />
      <rect
         style="fill:#fdff00;fill-opacity:1;stroke:none;stroke-width:0.089756;stroke-linejoin:round;stroke-dasharray:none;paint-order:stroke fill markers"
         id="use175"
         width="0.5595268"
         height="0.17674766"
         x="-2.2508264"
         y="75.92543"
         ry="0.039277259"
         transform="rotate(-27.54372)" />
      <rect
         style="fill:#fdff00;fill-opacity:1;stroke:none;stroke-width:0.089756;stroke-linejoin:round;stroke-dasharray:none;paint-order:stroke fill markers"
         id="use176"
         width="0.5595268"
         height="0.17674766"
         x="-56.10672"
         y="46.814087"
         ry="0.039277259"
         transform="rotate(-76.587317)" />
      <rect
         style="fill:#fdff00;fill-opacity:1;stroke:none;stroke-width:0.089756;stroke-linejoin:round;stroke-dasharray:none;paint-order:stroke fill markers"
         id="use177"
         width="0.55952674"
         height="0.17674765"
         x="69.030121"
         y="-30.772259"
         ry="0.039277259"
         transform="rotate(86.891481)" />
      <rect
         style="fill:#fdff00;fill-opacity:1;stroke:none;stroke-width:0.089756;stroke-linejoin:round;stroke-dasharray:none;paint-order:stroke fill markers"
         id="use178"
         width="0.55952674"
         height="0.17674765"
         x="-57.603519"
         y="45.463181"
         ry="0.039277259"
         transform="rotate(-82.12309)" />
      <rect
         style="fill:#fdff00;fill-opacity:1;stroke:none;stroke-width:0.089756;stroke-linejoin:round;stroke-dasharray:none;paint-order:stroke fill markers"
         id="use179"
         width="0.5595268"
         height="0.17674766"
         x="65.848495"
         y="-35.528923"
         ry="0.039277259"
         transform="rotate(88.166585)" />
      <rect
         style="fill:#fdff00;fill-opacity:1;stroke:none;stroke-width:0.089756;stroke-linejoin:round;stroke-dasharray:none;paint-order:stroke fill markers"
         id="use180"
         width="0.5595268"
         height="0.17674766"
         x="51.020229"
         y="55.59507"
         ry="0.039277259"
         transform="rotate(16.039515)" />
      <path
         id="path7"
         style="fill:#4d4d4d;fill-opacity:0.344864;stroke:none;stroke-width:0.190788px;stroke-linecap:butt;stroke-linejoin:miter;stroke-opacity:1"
         d="m 41.028877,62.980618 c 0.865022,1.194196 0.558298,3.492838 -0.302567,4.687033 1.275799,0.16868 1.410415,0.810811 1.717111,2.036355 -0.03822,1.088872 -0.188368,1.687888 -1.360279,2.390761 -0.402927,0.149117 -0.996177,-0.07734 -1.165893,-0.126682 0.516115,1.277511 1.671148,3.559065 -0.05672,4.836576 0.273161,0.05773 0.553778,0.08887 0.840754,0.08887 2.927674,0 4.703598,-3.201061 5.300941,-6.969061 0.340122,-2.145468 -2.06312,-6.578467 -4.97335,-6.943853 z"
         sodipodi:nodetypes="ccccccssc" />
      <path
         id="path7-5"
         style="fill:#ffffff;fill-opacity:0.06813417;stroke:none;stroke-width:0.220121px;stroke-linecap:butt;stroke-linejoin:miter;stroke-opacity:1"
         d="m 39.69074,62.125254 c -1.607694,0.525289 -2.798701,2.864032 -2.740208,4.55141 -1.340797,-0.702565 -1.886188,-0.197565 -2.975149,0.732739 -0.66756,1.035768 -0.910139,1.692516 -0.233493,3.133581 0.292517,0.409624 1.011751,0.599019 1.207523,0.66752 -1.324758,0.837502 -3.915906,2.17615 -3.0743,4.524591 -0.301063,-0.130376 -0.592119,-0.290439 -0.869168,-0.483668 -2.826406,-1.971288 -2.469952,-6.136368 -0.608899,-10.033766 1.059668,-2.219147 6.247743,-4.713017 9.293697,-3.092406 z"
         sodipodi:nodetypes="ccccccssc" />
    </g>
  </g>
</svg>
